{
    "editor": [
        {
            "icon": "",
            "key": "settings",
            "header": "Settings",
            "disabled": false,
            "fields": [
                {
                    "key": "bgImg",
                    "header": "App Background",
                    "type": "image"
                },
                {
                    "key": "fontName",
                    "header": "App Font Name (Google Fonts)",
                    "type": "text"
                },
                {
                    "key": "firstImage",
                    "header": "First Screen Image",
                    "type": "image"
                },
                {
                    "key": "btnText",
                    "header": "Button Text",
                    "type": "text"
                },
                {
                    "key": "btnBackground",
                    "header": "Button Background",
                    "type": "color"
                },
                {
                    "key": "btnFontColor",
                    "header": "Button Font Color",
                    "type": "color"
                },
                {
                    "key": "clicks",
                    "header": "Clicks Required",
                    "type": "range",
                    "options": {
                        "minValue": 1,
                        "maxValue": 100,
                        "stepSize": "1"
                    }
                },
                {
                    "key": "captionTitle",
                    "header": "Caption Title",
                    "type": "text"
                },
                {
                    "key": "captionColor",
                    "header": "Caption Font color",
                    "type": "color"
                },
                {
                    "key": "secondImage",
                    "header": "Second Screen Image",
                    "type": "image"
                },
                {
                    "key": "secondText",
                    "header": "Second Screen Text",
                    "type": "text"
                },
                {
                    "key": "secondTextColor",
                    "header": "Second Screen Text Color",
                    "type": "color"
                },
                {
                    "key": "sound",
                    "header": "Second Screen Sound",
                    "type": "sound"
                },
                {
                    "key": "soundPlayed",
                    "header": "Sound On/Off",
                    "type": "boolean"
                }
            ]
        }
    ],
    "config": {
        "settings": {
            "bgImg": "https://frontend.apps.playcent.com/e6929276bbfc46298cc04399b959ebb6/assets/istockphoto-857018066-640x640.jpg",
            "fontName": "Cinzel",
            "firstImage": "https://frontend.apps.playcent.com/b7df88a4334b4c58b5b0917479968dce/assets/ftx-exchange.jpg",
            "btnText": "Tap here",
            "btnBackground": "#14a5ea",
            "btnFontColor": "#ffffff",
            "clicks": 24,
            "captionTitle": "Reveal Next listing",
            "captionColor": "#ffffff",
            "secondImage": "https://frontend.apps.playcent.com/b7df88a4334b4c58b5b0917479968dce/assets/J1YJtvdI_400x400.jpg",
            "secondText": "",
            "secondTextColor": "#1d97d5",
            "sound": "https://frontend.apps.playcent.com/35b750caa0c145108a6e51e664a19786/assets/cheer_8k.mp3",
            "soundPlayed": true
        }
    }
}